Qty;Value;Device;Parts;Description
1;1 pF;402;C9;CAPACITOR, European symbol
2;1 pF;805;C8, C10;CAPACITOR, European symbol
1;10 uF;603;C14;CAPACITOR, European symbol
1;10 uH;603;L6;RESISTOR, European symbol
1;100K;603;R1;RESISTOR, European symbol
1;100mF;E5-10,5;C20;POLARIZED CAPACITOR, European symbol
2;100nF;603;C1, C3;CAPACITOR, European symbol
2;100nF;805;C13, C21;CAPACITOR, European symbol
1;10K;603;R3;RESISTOR, European symbol
1;110K;805;R6;RESISTOR, European symbol
1;11K;805;R5;RESISTOR, European symbol
1;11R;603;R2;RESISTOR, European symbol
5;12 pF;805;C5, C6, C7, C18, C19;CAPACITOR, European symbol
1;1M5;603;R11;RESISTOR, European symbol
1;1uF;805;C2;CAPACITOR, European symbol
2;2 nH;402;L4, L5;RESISTOR, European symbol
2;2.4 nH;402;L1, L3;RESISTOR, European symbol
1;22 uH;603;L8;RESISTOR, European symbol
1;24 MHz;CRYSTAL5X3;Q1;Crystals
1;2M7;603;R9;RESISTOR, European symbol
1;32.768 kHz;1206;Q2;CRYSTAL
2;4.7 uF;E2,5-6;C16, C17;POLARIZED CAPACITOR, European symbol
1;500k;603;R8;RESISTOR, European symbol
1;6.8 nH;402;L2;RESISTOR, European symbol
1;6M2;603;R7;RESISTOR, European symbol
1;8M2;603;R12;RESISTOR, European symbol
1;AUDIO-JACK-3.5;AUDIO-JACK-3.5;J2;"Mouser Jack 35"""
3;BAT54S;SOT23;D1, D2, D3;Schottky Diodes
1;BATT;W237-102;X1;WAGO SCREW CLAMP
1;BLM18HE152SN1;603;L7;RESISTOR, European symbol
1;CC26XX;QFN32_5X5;U1;
1;DCJ0202;DCJ0202;J3;DC POWER JACK
1;SPV10503X3;QFN20_3X3;U2;
1;TLVH431;SOT23;VR1;
