<?xml version="1.0" encoding="utf-8"?>
<!DOCTYPE eagle SYSTEM "eagle.dtd">
<eagle version="6.1">
<drawing>
<settings>
<setting alwaysvectorfont="no"/>
<setting verticaltext="up"/>
</settings>
<grid distance="0.1" unitdist="inch" unit="inch" style="lines" multiple="1" display="no" altdistance="0.01" altunitdist="inch" altunit="inch"/>
<layers>
<layer number="1" name="Top" color="4" fill="1" visible="yes" active="yes"/>
<layer number="16" name="Bottom" color="1" fill="1" visible="yes" active="yes"/>
<layer number="17" name="Pads" color="2" fill="1" visible="yes" active="yes"/>
<layer number="18" name="Vias" color="2" fill="1" visible="yes" active="yes"/>
<layer number="19" name="Unrouted" color="6" fill="1" visible="yes" active="yes"/>
<layer number="20" name="Dimension" color="15" fill="1" visible="yes" active="yes"/>
<layer number="21" name="tPlace" color="7" fill="1" visible="yes" active="yes"/>
<layer number="22" name="bPlace" color="7" fill="1" visible="yes" active="yes"/>
<layer number="23" name="tOrigins" color="15" fill="1" visible="yes" active="yes"/>
<layer number="24" name="bOrigins" color="15" fill="1" visible="yes" active="yes"/>
<layer number="25" name="tNames" color="7" fill="1" visible="yes" active="yes"/>
<layer number="26" name="bNames" color="7" fill="1" visible="yes" active="yes"/>
<layer number="27" name="tValues" color="7" fill="1" visible="yes" active="yes"/>
<layer number="28" name="bValues" color="7" fill="1" visible="yes" active="yes"/>
<layer number="29" name="tStop" color="7" fill="3" visible="yes" active="yes"/>
<layer number="30" name="bStop" color="7" fill="6" visible="no" active="yes"/>
<layer number="31" name="tCream" color="7" fill="4" visible="no" active="yes"/>
<layer number="32" name="bCream" color="7" fill="5" visible="no" active="yes"/>
<layer number="33" name="tFinish" color="6" fill="3" visible="no" active="yes"/>
<layer number="34" name="bFinish" color="6" fill="6" visible="no" active="yes"/>
<layer number="35" name="tGlue" color="7" fill="4" visible="no" active="yes"/>
<layer number="36" name="bGlue" color="7" fill="5" visible="no" active="yes"/>
<layer number="37" name="tTest" color="7" fill="1" visible="yes" active="yes"/>
<layer number="38" name="bTest" color="7" fill="1" visible="no" active="yes"/>
<layer number="39" name="tKeepout" color="4" fill="11" visible="yes" active="yes"/>
<layer number="40" name="bKeepout" color="1" fill="11" visible="yes" active="yes"/>
<layer number="41" name="tRestrict" color="4" fill="10" visible="yes" active="yes"/>
<layer number="42" name="bRestrict" color="1" fill="10" visible="yes" active="yes"/>
<layer number="43" name="vRestrict" color="2" fill="10" visible="yes" active="yes"/>
<layer number="44" name="Drills" color="7" fill="1" visible="no" active="yes"/>
<layer number="45" name="Holes" color="7" fill="1" visible="no" active="yes"/>
<layer number="46" name="Milling" color="3" fill="1" visible="no" active="yes"/>
<layer number="47" name="Measures" color="7" fill="1" visible="no" active="yes"/>
<layer number="48" name="Document" color="7" fill="1" visible="yes" active="yes"/>
<layer number="49" name="Reference" color="7" fill="1" visible="yes" active="yes"/>
<layer number="51" name="tDocu" color="7" fill="1" visible="yes" active="yes"/>
<layer number="52" name="bDocu" color="7" fill="1" visible="yes" active="yes"/>
<layer number="91" name="Nets" color="2" fill="1" visible="yes" active="yes"/>
<layer number="92" name="Busses" color="1" fill="1" visible="yes" active="yes"/>
<layer number="93" name="Pins" color="2" fill="1" visible="yes" active="yes"/>
<layer number="94" name="Symbols" color="4" fill="1" visible="yes" active="yes"/>
<layer number="95" name="Names" color="7" fill="1" visible="yes" active="yes"/>
<layer number="96" name="Values" color="7" fill="1" visible="yes" active="yes"/>
<layer number="97" name="Info" color="7" fill="1" visible="yes" active="yes"/>
<layer number="98" name="Guide" color="6" fill="1" visible="yes" active="yes"/>
</layers>
<library>
<packages>
<package name="DN007-3">
<wire x1="-8.6" y1="-3.3" x2="16.9" y2="-3.3" width="0.127" layer="21" style="shortdash"/>
<wire x1="13.94" y1="3.61" x2="13.94" y2="2.4" width="0.25" layer="21"/>
<smd name="FEED" x="2.22" y="-2.8" dx="0.46" dy="1" layer="1" stop="no" thermals="no" cream="no"/>
<smd name="GND@1" x="1.035" y="-2.93" dx="0.74" dy="1.01" layer="1" rot="R90" stop="no" thermals="no" cream="no"/>
<smd name="GND" x="-1.16" y="-2.93" dx="0.74" dy="1.01" layer="1" rot="R90" stop="no" thermals="no" cream="no"/>
<polygon width="0.25" layer="1">
<vertex x="2.115" y="-2.4"/>
<vertex x="2.115" y="-1.22"/>
<vertex x="1.38" y="-0.485"/>
<vertex x="-1.535" y="-0.485"/>
<vertex x="-1.535" y="0.475"/>
<vertex x="-0.535" y="0.475"/>
<vertex x="-0.535" y="1.525"/>
<vertex x="-6.585" y="1.525"/>
<vertex x="-6.585" y="-1.395"/>
<vertex x="1.415" y="-1.395"/>
<vertex x="1.415" y="-2.63"/>
<vertex x="0.66" y="-2.63"/>
<vertex x="0.66" y="-2.435"/>
<vertex x="-0.78" y="-2.435"/>
<vertex x="-0.78" y="-2.59"/>
<vertex x="-1.54" y="-2.59"/>
<vertex x="-1.54" y="-2.435"/>
<vertex x="-8.515" y="-2.435"/>
<vertex x="-8.515" y="3.485"/>
<vertex x="13.815" y="3.485"/>
<vertex x="13.815" y="2.525"/>
<vertex x="0.415" y="2.525"/>
<vertex x="0.415" y="0.475"/>
<vertex x="1.415" y="0.475"/>
<vertex x="1.415" y="-0.21"/>
<vertex x="2.325" y="-1.12"/>
<vertex x="2.325" y="-2.4"/>
</polygon>
</package>
<package name="DN007-2">
<wire x1="-8.6" y1="-3.3" x2="16.9" y2="-3.3" width="0.127" layer="21" style="shortdash"/>
<wire x1="13.94" y1="3.61" x2="13.94" y2="2.4" width="0.25" layer="21"/>
<smd name="FEED" x="2.22" y="-2.8" dx="0.46" dy="1" layer="1" stop="no" thermals="no" cream="no"/>
<smd name="GND@1" x="1.035" y="-2.93" dx="0.74" dy="1.01" layer="1" rot="R90" stop="no" thermals="no" cream="no"/>
<smd name="GND" x="-1.16" y="-2.93" dx="0.74" dy="1.01" layer="1" rot="R90" stop="no" thermals="no" cream="no"/>
<polygon width="0.25" layer="1">
<vertex x="2.115" y="-2.4"/>
<vertex x="2.115" y="-1.22"/>
<vertex x="1.38" y="-0.485"/>
<vertex x="-1.535" y="-0.485"/>
<vertex x="-1.535" y="0.475"/>
<vertex x="-0.535" y="0.475"/>
<vertex x="-0.535" y="1.525"/>
<vertex x="-6.585" y="1.525"/>
<vertex x="-6.585" y="-1.395"/>
<vertex x="1.415" y="-1.395"/>
<vertex x="1.415" y="-2.63"/>
<vertex x="0.66" y="-2.63"/>
<vertex x="0.66" y="-2.435"/>
<vertex x="-0.78" y="-2.435"/>
<vertex x="-0.78" y="-2.59"/>
<vertex x="-1.54" y="-2.59"/>
<vertex x="-1.54" y="-2.435"/>
<vertex x="-8.515" y="-2.435"/>
<vertex x="-8.515" y="3.485"/>
<vertex x="14.815" y="3.485"/>
<vertex x="14.815" y="2.525"/>
<vertex x="0.415" y="2.525"/>
<vertex x="0.415" y="0.475"/>
<vertex x="1.415" y="0.475"/>
<vertex x="1.415" y="-0.21"/>
<vertex x="2.325" y="-1.12"/>
<vertex x="2.325" y="-2.4"/>
</polygon>
<wire x1="14.94" y1="3.61" x2="14.94" y2="2.4" width="0.25" layer="21"/>
</package>
<package name="DN007-1">
<wire x1="-8.6" y1="-3.3" x2="16.9" y2="-3.3" width="0.127" layer="21" style="shortdash"/>
<wire x1="14.94" y1="3.61" x2="14.94" y2="2.4" width="0.25" layer="21"/>
<wire x1="13.94" y1="3.61" x2="13.94" y2="2.4" width="0.25" layer="21"/>
<smd name="FEED" x="2.22" y="-2.8" dx="0.46" dy="1" layer="1" stop="no" thermals="no" cream="no"/>
<smd name="GND@1" x="1.035" y="-2.93" dx="0.74" dy="1.01" layer="1" rot="R90" stop="no" thermals="no" cream="no"/>
<smd name="GND" x="-1.16" y="-2.93" dx="0.74" dy="1.01" layer="1" rot="R90" stop="no" thermals="no" cream="no"/>
<polygon width="0.25" layer="1">
<vertex x="2.115" y="-2.4"/>
<vertex x="2.115" y="-1.22"/>
<vertex x="1.38" y="-0.485"/>
<vertex x="-1.535" y="-0.485"/>
<vertex x="-1.535" y="0.475"/>
<vertex x="-0.535" y="0.475"/>
<vertex x="-0.535" y="1.525"/>
<vertex x="-6.585" y="1.525"/>
<vertex x="-6.585" y="-1.395"/>
<vertex x="1.415" y="-1.395"/>
<vertex x="1.415" y="-2.63"/>
<vertex x="0.66" y="-2.63"/>
<vertex x="0.66" y="-2.435"/>
<vertex x="-0.78" y="-2.435"/>
<vertex x="-0.78" y="-2.59"/>
<vertex x="-1.54" y="-2.59"/>
<vertex x="-1.54" y="-2.435"/>
<vertex x="-8.515" y="-2.435"/>
<vertex x="-8.515" y="3.485"/>
<vertex x="15.815" y="3.485"/>
<vertex x="15.815" y="2.525"/>
<vertex x="0.415" y="2.525"/>
<vertex x="0.415" y="0.475"/>
<vertex x="1.415" y="0.475"/>
<vertex x="1.415" y="-0.21"/>
<vertex x="2.325" y="-1.12"/>
<vertex x="2.325" y="-2.4"/>
</polygon>
<wire x1="15.94" y1="3.61" x2="15.94" y2="2.4" width="0.25" layer="21"/>
</package>
<package name="DN007+0">
<wire x1="-8.6" y1="-3.3" x2="16.9" y2="-3.3" width="0.127" layer="21" style="shortdash"/>
<wire x1="16.94" y1="3.61" x2="16.94" y2="1.4" width="0.25" layer="21"/>
<wire x1="15.94" y1="3.61" x2="15.94" y2="2.4" width="0.25" layer="21"/>
<wire x1="14.94" y1="3.61" x2="14.94" y2="2.4" width="0.25" layer="21"/>
<wire x1="13.94" y1="3.61" x2="13.94" y2="2.4" width="0.25" layer="21"/>
<smd name="FEED" x="2.22" y="-2.8" dx="0.46" dy="1" layer="1" stop="no" thermals="no" cream="no"/>
<smd name="GND@1" x="1.035" y="-2.93" dx="0.74" dy="1.01" layer="1" rot="R90" stop="no" thermals="no" cream="no"/>
<smd name="GND" x="-1.16" y="-2.93" dx="0.74" dy="1.01" layer="1" rot="R90" stop="no" thermals="no" cream="no"/>
<polygon width="0.25" layer="1">
<vertex x="2.115" y="-2.4"/>
<vertex x="2.115" y="-1.22"/>
<vertex x="1.38" y="-0.485"/>
<vertex x="-1.535" y="-0.485"/>
<vertex x="-1.535" y="0.475"/>
<vertex x="-0.535" y="0.475"/>
<vertex x="-0.535" y="1.525"/>
<vertex x="-6.585" y="1.525"/>
<vertex x="-6.585" y="-1.395"/>
<vertex x="1.415" y="-1.395"/>
<vertex x="1.415" y="-2.63"/>
<vertex x="0.66" y="-2.63"/>
<vertex x="0.66" y="-2.435"/>
<vertex x="-0.78" y="-2.435"/>
<vertex x="-0.78" y="-2.59"/>
<vertex x="-1.54" y="-2.59"/>
<vertex x="-1.54" y="-2.435"/>
<vertex x="-8.515" y="-2.435"/>
<vertex x="-8.515" y="3.485"/>
<vertex x="16.815" y="3.485"/>
<vertex x="16.815" y="2.525"/>
<vertex x="0.415" y="2.525"/>
<vertex x="0.415" y="0.475"/>
<vertex x="1.415" y="0.475"/>
<vertex x="1.415" y="-0.21"/>
<vertex x="2.325" y="-1.12"/>
<vertex x="2.325" y="-2.4"/>
</polygon>
</package>
<package name="DN007+1">
<wire x1="-8.6" y1="-3.3" x2="16.9" y2="-3.3" width="0.127" layer="21" style="shortdash"/>
<wire x1="16.94" y1="3.61" x2="16.94" y2="1.4" width="0.25" layer="21"/>
<wire x1="15.94" y1="3.61" x2="15.94" y2="2.4" width="0.25" layer="21"/>
<wire x1="14.94" y1="3.61" x2="14.94" y2="2.4" width="0.25" layer="21"/>
<wire x1="13.94" y1="3.61" x2="13.94" y2="2.4" width="0.25" layer="21"/>
<smd name="FEED" x="2.22" y="-2.8" dx="0.46" dy="1" layer="1" stop="no" thermals="no" cream="no"/>
<smd name="GND@1" x="1.035" y="-2.93" dx="0.74" dy="1.01" layer="1" rot="R90" stop="no" thermals="no" cream="no"/>
<smd name="GND" x="-1.16" y="-2.93" dx="0.74" dy="1.01" layer="1" rot="R90" stop="no" thermals="no" cream="no"/>
<polygon width="0.25" layer="1">
<vertex x="2.115" y="-2.4"/>
<vertex x="2.115" y="-1.22"/>
<vertex x="1.38" y="-0.485"/>
<vertex x="-1.535" y="-0.485"/>
<vertex x="-1.535" y="0.475"/>
<vertex x="-0.535" y="0.475"/>
<vertex x="-0.535" y="1.525"/>
<vertex x="-6.585" y="1.525"/>
<vertex x="-6.585" y="-1.395"/>
<vertex x="1.415" y="-1.395"/>
<vertex x="1.415" y="-2.63"/>
<vertex x="0.66" y="-2.63"/>
<vertex x="0.66" y="-2.435"/>
<vertex x="-0.78" y="-2.435"/>
<vertex x="-0.78" y="-2.59"/>
<vertex x="-1.54" y="-2.59"/>
<vertex x="-1.54" y="-2.435"/>
<vertex x="-8.515" y="-2.435"/>
<vertex x="-8.515" y="3.485"/>
<vertex x="17.815" y="3.485"/>
<vertex x="17.815" y="2.525"/>
<vertex x="0.415" y="2.525"/>
<vertex x="0.415" y="0.475"/>
<vertex x="1.415" y="0.475"/>
<vertex x="1.415" y="-0.21"/>
<vertex x="2.325" y="-1.12"/>
<vertex x="2.325" y="-2.4"/>
</polygon>
<wire x1="17.94" y1="3.61" x2="17.94" y2="2.4" width="0.25" layer="21"/>
</package>
<package name="DN007+2">
<wire x1="-8.6" y1="-3.3" x2="16.9" y2="-3.3" width="0.127" layer="21" style="shortdash"/>
<wire x1="16.94" y1="3.61" x2="16.94" y2="1.4" width="0.25" layer="21"/>
<wire x1="17.94" y1="3.61" x2="17.94" y2="2.4" width="0.25" layer="21"/>
<wire x1="15.94" y1="3.61" x2="15.94" y2="2.4" width="0.25" layer="21"/>
<wire x1="14.94" y1="3.61" x2="14.94" y2="2.4" width="0.25" layer="21"/>
<wire x1="13.94" y1="3.61" x2="13.94" y2="2.4" width="0.25" layer="21"/>
<smd name="FEED" x="2.22" y="-2.8" dx="0.46" dy="1" layer="1" stop="no" thermals="no" cream="no"/>
<smd name="GND@1" x="1.035" y="-2.93" dx="0.74" dy="1.01" layer="1" rot="R90" stop="no" thermals="no" cream="no"/>
<smd name="GND" x="-1.16" y="-2.93" dx="0.74" dy="1.01" layer="1" rot="R90" stop="no" thermals="no" cream="no"/>
<polygon width="0.25" layer="1">
<vertex x="2.115" y="-2.4"/>
<vertex x="2.115" y="-1.22"/>
<vertex x="1.38" y="-0.485"/>
<vertex x="-1.535" y="-0.485"/>
<vertex x="-1.535" y="0.475"/>
<vertex x="-0.535" y="0.475"/>
<vertex x="-0.535" y="1.525"/>
<vertex x="-6.585" y="1.525"/>
<vertex x="-6.585" y="-1.395"/>
<vertex x="1.415" y="-1.395"/>
<vertex x="1.415" y="-2.63"/>
<vertex x="0.66" y="-2.63"/>
<vertex x="0.66" y="-2.435"/>
<vertex x="-0.78" y="-2.435"/>
<vertex x="-0.78" y="-2.59"/>
<vertex x="-1.54" y="-2.59"/>
<vertex x="-1.54" y="-2.435"/>
<vertex x="-8.515" y="-2.435"/>
<vertex x="-8.515" y="3.485"/>
<vertex x="18.815" y="3.485"/>
<vertex x="18.815" y="2.525"/>
<vertex x="0.415" y="2.525"/>
<vertex x="0.415" y="0.475"/>
<vertex x="1.415" y="0.475"/>
<vertex x="1.415" y="-0.21"/>
<vertex x="2.325" y="-1.12"/>
<vertex x="2.325" y="-2.4"/>
</polygon>
<wire x1="18.94" y1="3.61" x2="18.94" y2="2.4" width="0.25" layer="21"/>
</package>
<package name="DN007+3">
<wire x1="-8.6" y1="-3.3" x2="16.9" y2="-3.3" width="0.127" layer="21" style="shortdash"/>
<wire x1="16.94" y1="3.61" x2="16.94" y2="1.4" width="0.25" layer="21"/>
<wire x1="17.94" y1="3.61" x2="17.94" y2="2.4" width="0.25" layer="21"/>
<wire x1="18.94" y1="3.61" x2="18.94" y2="2.4" width="0.25" layer="21"/>
<wire x1="15.94" y1="3.61" x2="15.94" y2="2.4" width="0.25" layer="21"/>
<wire x1="14.94" y1="3.61" x2="14.94" y2="2.4" width="0.25" layer="21"/>
<wire x1="13.94" y1="3.61" x2="13.94" y2="2.4" width="0.25" layer="21"/>
<smd name="FEED" x="2.22" y="-2.8" dx="0.46" dy="1" layer="1" stop="no" thermals="no" cream="no"/>
<smd name="GND@1" x="1.035" y="-2.93" dx="0.74" dy="1.01" layer="1" rot="R90" stop="no" thermals="no" cream="no"/>
<smd name="GND" x="-1.16" y="-2.93" dx="0.74" dy="1.01" layer="1" rot="R90" stop="no" thermals="no" cream="no"/>
<polygon width="0.25" layer="1">
<vertex x="2.115" y="-2.4"/>
<vertex x="2.115" y="-1.22"/>
<vertex x="1.38" y="-0.485"/>
<vertex x="-1.535" y="-0.485"/>
<vertex x="-1.535" y="0.475"/>
<vertex x="-0.535" y="0.475"/>
<vertex x="-0.535" y="1.525"/>
<vertex x="-6.585" y="1.525"/>
<vertex x="-6.585" y="-1.395"/>
<vertex x="1.415" y="-1.395"/>
<vertex x="1.415" y="-2.63"/>
<vertex x="0.66" y="-2.63"/>
<vertex x="0.66" y="-2.435"/>
<vertex x="-0.78" y="-2.435"/>
<vertex x="-0.78" y="-2.59"/>
<vertex x="-1.54" y="-2.59"/>
<vertex x="-1.54" y="-2.435"/>
<vertex x="-8.515" y="-2.435"/>
<vertex x="-8.515" y="3.485"/>
<vertex x="19.815" y="3.485"/>
<vertex x="19.815" y="2.525"/>
<vertex x="0.415" y="2.525"/>
<vertex x="0.415" y="0.475"/>
<vertex x="1.415" y="0.475"/>
<vertex x="1.415" y="-0.21"/>
<vertex x="2.325" y="-1.12"/>
<vertex x="2.325" y="-2.4"/>
</polygon>
<wire x1="19.94" y1="3.61" x2="19.94" y2="2.4" width="0.25" layer="21"/>
</package>
<package name="DN007+4">
<wire x1="-8.6" y1="-3.3" x2="16.9" y2="-3.3" width="0.127" layer="21" style="shortdash"/>
<wire x1="16.94" y1="3.61" x2="16.94" y2="1.4" width="0.25" layer="21"/>
<wire x1="17.94" y1="3.61" x2="17.94" y2="2.4" width="0.25" layer="21"/>
<wire x1="18.94" y1="3.61" x2="18.94" y2="2.4" width="0.25" layer="21"/>
<wire x1="19.94" y1="3.61" x2="19.94" y2="2.4" width="0.25" layer="21"/>
<wire x1="15.94" y1="3.61" x2="15.94" y2="2.4" width="0.25" layer="21"/>
<wire x1="14.94" y1="3.61" x2="14.94" y2="2.4" width="0.25" layer="21"/>
<wire x1="13.94" y1="3.61" x2="13.94" y2="2.4" width="0.25" layer="21"/>
<smd name="FEED" x="2.22" y="-2.8" dx="0.46" dy="1" layer="1" stop="no" thermals="no" cream="no"/>
<smd name="GND@1" x="1.035" y="-2.93" dx="0.74" dy="1.01" layer="1" rot="R90" stop="no" thermals="no" cream="no"/>
<smd name="GND" x="-1.16" y="-2.93" dx="0.74" dy="1.01" layer="1" rot="R90" stop="no" thermals="no" cream="no"/>
<polygon width="0.25" layer="1">
<vertex x="2.115" y="-2.4"/>
<vertex x="2.115" y="-1.22"/>
<vertex x="1.38" y="-0.485"/>
<vertex x="-1.535" y="-0.485"/>
<vertex x="-1.535" y="0.475"/>
<vertex x="-0.535" y="0.475"/>
<vertex x="-0.535" y="1.525"/>
<vertex x="-6.585" y="1.525"/>
<vertex x="-6.585" y="-1.395"/>
<vertex x="1.415" y="-1.395"/>
<vertex x="1.415" y="-2.63"/>
<vertex x="0.66" y="-2.63"/>
<vertex x="0.66" y="-2.435"/>
<vertex x="-0.78" y="-2.435"/>
<vertex x="-0.78" y="-2.59"/>
<vertex x="-1.54" y="-2.59"/>
<vertex x="-1.54" y="-2.435"/>
<vertex x="-8.515" y="-2.435"/>
<vertex x="-8.515" y="3.485"/>
<vertex x="20.815" y="3.485"/>
<vertex x="20.815" y="2.525"/>
<vertex x="0.415" y="2.525"/>
<vertex x="0.415" y="0.475"/>
<vertex x="1.415" y="0.475"/>
<vertex x="1.415" y="-0.21"/>
<vertex x="2.325" y="-1.12"/>
<vertex x="2.325" y="-2.4"/>
</polygon>
<wire x1="20.94" y1="3.61" x2="20.94" y2="2.4" width="0.25" layer="21"/>
</package>
<package name="DN007+5">
<wire x1="-8.6" y1="-3.3" x2="16.9" y2="-3.3" width="0.127" layer="21" style="shortdash"/>
<wire x1="16.94" y1="3.61" x2="16.94" y2="1.4" width="0.25" layer="21"/>
<wire x1="17.94" y1="3.61" x2="17.94" y2="2.4" width="0.25" layer="21"/>
<wire x1="18.94" y1="3.61" x2="18.94" y2="2.4" width="0.25" layer="21"/>
<wire x1="19.94" y1="3.61" x2="19.94" y2="2.4" width="0.25" layer="21"/>
<wire x1="20.94" y1="3.61" x2="20.94" y2="2.4" width="0.25" layer="21"/>
<wire x1="15.94" y1="3.61" x2="15.94" y2="2.4" width="0.25" layer="21"/>
<wire x1="14.94" y1="3.61" x2="14.94" y2="2.4" width="0.25" layer="21"/>
<wire x1="13.94" y1="3.61" x2="13.94" y2="2.4" width="0.25" layer="21"/>
<smd name="FEED" x="2.22" y="-2.8" dx="0.46" dy="1" layer="1" stop="no" thermals="no" cream="no"/>
<smd name="GND@1" x="1.035" y="-2.93" dx="0.74" dy="1.01" layer="1" rot="R90" stop="no" thermals="no" cream="no"/>
<smd name="GND" x="-1.16" y="-2.93" dx="0.74" dy="1.01" layer="1" rot="R90" stop="no" thermals="no" cream="no"/>
<polygon width="0.25" layer="1">
<vertex x="2.115" y="-2.4"/>
<vertex x="2.115" y="-1.22"/>
<vertex x="1.38" y="-0.485"/>
<vertex x="-1.535" y="-0.485"/>
<vertex x="-1.535" y="0.475"/>
<vertex x="-0.535" y="0.475"/>
<vertex x="-0.535" y="1.525"/>
<vertex x="-6.585" y="1.525"/>
<vertex x="-6.585" y="-1.395"/>
<vertex x="1.415" y="-1.395"/>
<vertex x="1.415" y="-2.63"/>
<vertex x="0.66" y="-2.63"/>
<vertex x="0.66" y="-2.435"/>
<vertex x="-0.78" y="-2.435"/>
<vertex x="-0.78" y="-2.59"/>
<vertex x="-1.54" y="-2.59"/>
<vertex x="-1.54" y="-2.435"/>
<vertex x="-8.515" y="-2.435"/>
<vertex x="-8.515" y="3.485"/>
<vertex x="21.815" y="3.485"/>
<vertex x="21.815" y="2.525"/>
<vertex x="0.415" y="2.525"/>
<vertex x="0.415" y="0.475"/>
<vertex x="1.415" y="0.475"/>
<vertex x="1.415" y="-0.21"/>
<vertex x="2.325" y="-1.12"/>
<vertex x="2.325" y="-2.4"/>
</polygon>
</package>
</packages>
<symbols>
<symbol name="INVERTED_F_ANTENNA">
<wire x1="-5.08" y1="10.16" x2="-5.08" y2="-7.62" width="0.254" layer="94"/>
<wire x1="-5.08" y1="-7.62" x2="15.24" y2="-7.62" width="0.254" layer="94"/>
<wire x1="15.24" y1="-7.62" x2="15.24" y2="10.16" width="0.254" layer="94"/>
<wire x1="15.24" y1="10.16" x2="-5.08" y2="10.16" width="0.254" layer="94"/>
<text x="-2.54" y="7.62" size="1.778" layer="95">Inverted F</text>
<text x="-2.54" y="5.08" size="1.778" layer="95">antenna</text>
<rectangle x1="8.128" y1="-3.556" x2="8.636" y2="-3.048" layer="94"/>
<rectangle x1="7.112" y1="-3.556" x2="7.62" y2="-3.048" layer="94"/>
<rectangle x1="7.112" y1="-2.286" x2="8.636" y2="-1.778" layer="94"/>
<rectangle x1="7.62" y1="-1.778" x2="8.128" y2="-1.524" layer="94"/>
<rectangle x1="5.334" y1="-3.048" x2="8.636" y2="-2.54" layer="94"/>
<rectangle x1="5.334" y1="-2.54" x2="5.842" y2="-1.016" layer="94"/>
<rectangle x1="5.842" y1="-1.524" x2="8.128" y2="-1.016" layer="94"/>
<rectangle x1="8.128" y1="-1.27" x2="12.954" y2="-1.016" layer="94"/>
<pin name="FEED" x="-7.62" y="2.54" visible="pin" length="short"/>
<pin name="GND@1" x="-7.62" y="-5.08" visible="pin" length="short"/>
<pin name="GND" x="-7.62" y="-2.54" visible="pin" length="short"/>
</symbol>
</symbols>
<devicesets>
<deviceset name="INVERTED_F_ANTENNA">
<description>&lt;b&gt;2.4GHz Inverted F Antenna&lt;/b&gt;&lt;br&gt;
&lt;br&gt;
Based on TI Design Note DN007&lt;br&gt;</description>
<gates>
<gate name="G$1" symbol="INVERTED_F_ANTENNA" x="0" y="0"/>
</gates>
<devices>
<device name="+5" package="DN007+5">
<connects>
<connect gate="G$1" pin="FEED" pad="FEED"/>
<connect gate="G$1" pin="GND" pad="GND"/>
<connect gate="G$1" pin="GND@1" pad="GND@1"/>
</connects>
<technologies>
<technology name=""/>
</technologies>
</device>
<device name="+0" package="DN007+0">
<connects>
<connect gate="G$1" pin="FEED" pad="FEED"/>
<connect gate="G$1" pin="GND" pad="GND"/>
<connect gate="G$1" pin="GND@1" pad="GND@1"/>
</connects>
<technologies>
<technology name=""/>
</technologies>
</device>
<device name="+1" package="DN007+1">
<connects>
<connect gate="G$1" pin="FEED" pad="FEED"/>
<connect gate="G$1" pin="GND" pad="GND"/>
<connect gate="G$1" pin="GND@1" pad="GND@1"/>
</connects>
<technologies>
<technology name=""/>
</technologies>
</device>
<device name="+2" package="DN007+2">
<connects>
<connect gate="G$1" pin="FEED" pad="FEED"/>
<connect gate="G$1" pin="GND" pad="GND"/>
<connect gate="G$1" pin="GND@1" pad="GND@1"/>
</connects>
<technologies>
<technology name=""/>
</technologies>
</device>
<device name="+3" package="DN007+3">
<connects>
<connect gate="G$1" pin="FEED" pad="FEED"/>
<connect gate="G$1" pin="GND" pad="GND"/>
<connect gate="G$1" pin="GND@1" pad="GND@1"/>
</connects>
<technologies>
<technology name=""/>
</technologies>
</device>
<device name="+4" package="DN007+4">
<connects>
<connect gate="G$1" pin="FEED" pad="FEED"/>
<connect gate="G$1" pin="GND" pad="GND"/>
<connect gate="G$1" pin="GND@1" pad="GND@1"/>
</connects>
<technologies>
<technology name=""/>
</technologies>
</device>
<device name="-1" package="DN007-1">
<connects>
<connect gate="G$1" pin="FEED" pad="FEED"/>
<connect gate="G$1" pin="GND" pad="GND"/>
<connect gate="G$1" pin="GND@1" pad="GND@1"/>
</connects>
<technologies>
<technology name=""/>
</technologies>
</device>
<device name="-2" package="DN007-2">
<connects>
<connect gate="G$1" pin="FEED" pad="FEED"/>
<connect gate="G$1" pin="GND" pad="GND"/>
<connect gate="G$1" pin="GND@1" pad="GND@1"/>
</connects>
<technologies>
<technology name=""/>
</technologies>
</device>
<device name="-3" package="DN007-3">
<connects>
<connect gate="G$1" pin="FEED" pad="FEED"/>
<connect gate="G$1" pin="GND" pad="GND"/>
<connect gate="G$1" pin="GND@1" pad="GND@1"/>
</connects>
<technologies>
<technology name=""/>
</technologies>
</device>
</devices>
</deviceset>
</devicesets>
</library>
</drawing>
</eagle>
