%
M48
M72
T01C0.01500
T02C0.02362
T03C0.03200
T04C0.03937
T05C0.04000
T06C0.04700
T07C0.05118
T08C0.05200
T09C0.06299
%
T01
X62604Y106555
X62604Y110305
X62604Y114055
X66354Y114055
X70104Y114055
X70104Y110305
X70104Y106555
X66354Y106555
T02
X8283Y20738
X7299Y39439
X7299Y59124
X26984Y69951
X26984Y79793
X26984Y89636
X26984Y99478
X26984Y109321
X35843Y110305
X26984Y119163
X33382Y127530
X42240Y130482
X47161Y135404
X54543Y134911
X67831Y130974
X56020Y120640
X47949Y113258
X63205Y89144
X68323Y80778
X62909Y72411
X57496Y80778
X52575Y72411
X43224Y80778
X62417Y19754
X86039Y19754
X110646Y19754
X137220Y65030
X151000Y70935
X151000Y77825
X147063Y84715
X154937Y92195
X164780Y91604
X164780Y100463
X164780Y106368
X162811Y116211
X149031Y104400
X145094Y97510
X131315Y106368
X120488Y107352
X125409Y94557
X121965Y78317
X105232Y82254
X102476Y77825
X84071Y87175
X80626Y98494
X83579Y109321
X93913Y109813
X103756Y116211
X103756Y102431
X80134Y121132
X101787Y138848
X103756Y129498
X82102Y149675
X62417Y149675
X50114Y173297
X25016Y173297
X7299Y149675
X7299Y131959
X7299Y109321
X7299Y88652
X77181Y173297
X105724Y173297
X133283Y173297
X158874Y173297
X192339Y159518
X192339Y133927
X192339Y106368
X192339Y80778
X192339Y51250
X160843Y65030
X156906Y19754
T03
X122535Y63061
X112535Y63061
X98913Y57156
X88913Y57156
T04
X158480Y146919
X170685Y165817
X182496Y146919
T05
X175114Y26978
X175114Y46978
T06
X123441Y33809
X143126Y33809
T07
X35252Y26841
X15567Y46526
X54937Y46526
T08
X17142Y65030
X17142Y74872
X17142Y84715
X17142Y94557
X17142Y104400
X17634Y114242
T09
X15567Y26841
X35252Y46526
X54937Y26841
M30
